%YAML 1.1
%TAG !u! tag:unity3d.com,2011:
--- !u!21 &2100000
Material:
  serializedVersion: 6
  m_ObjectHideFlags: 0
  m_CorrespondingSourceObject: {fileID: 0}
  m_PrefabInstance: {fileID: 0}
  m_PrefabAsset: {fileID: 0}
  m_Name: Syringe fluid
  m_Shader: {fileID: -6465566751694194690, guid: a7ae1a03e4faeaf4b84611aea4df36c8,
    type: 3}
  m_ShaderKeywords: 
  m_LightmapFlags: 4
  m_EnableInstancingVariants: 0
  m_DoubleSidedGI: 0
  m_CustomRenderQueue: -1
  stringTagMap: {}
  disabledShaderPasses: []
  m_SavedProperties:
    serializedVersion: 3
    m_TexEnvs: []
    m_Floats:
    - Vector1_127F7E8D: 0
    - Vector1_4B5DF031: 80
    - Vector1_BA30C3C6: 100
    m_Colors:
    - Color_4D6F2546: {r: 0, g: 0.49648052, b: 15.80463, a: 1}
    - Color_D1324025: {r: 0, g: 0.02745098, b: 1, a: 1}
