%YAML 1.1
%TAG !u! tag:unity3d.com,2011:
--- !u!21 &2100000
Material:
  serializedVersion: 6
  m_ObjectHideFlags: 0
  m_CorrespondingSourceObject: {fileID: 0}
  m_PrefabInstance: {fileID: 0}
  m_PrefabAsset: {fileID: 0}
  m_Name: Shader Graphs_ForceField
  m_Shader: {fileID: -6465566751694194690, guid: f72addae67826a344be3f17b133d721c,
    type: 3}
  m_ShaderKeywords: 
  m_LightmapFlags: 4
  m_EnableInstancingVariants: 0
  m_DoubleSidedGI: 0
  m_CustomRenderQueue: -1
  stringTagMap: {}
  disabledShaderPasses: []
  m_SavedProperties:
    serializedVersion: 3
    m_TexEnvs:
    - Texture2D_26414ADF:
        m_Texture: {fileID: 2800000, guid: c15a554ddd7564f4bb348a191a5b1d15, type: 3}
        m_Scale: {x: 1, y: 1}
        m_Offset: {x: 0, y: 0}
    m_Floats:
    - Vector1_20F16E1E: 0.05
    - Vector1_7D41A7D2: 1.81
    - Vector1_7E090FD6: 7.59
    - Vector1_C7BB4CCC: 21
    m_Colors:
    - Color_F182B5E: {r: 0, g: 0.14117648, b: 1, a: 0}
