%YAML 1.1
%TAG !u! tag:unity3d.com,2011:
--- !u!114 &11400000
MonoBehaviour:
  m_ObjectHideFlags: 0
  m_CorrespondingSourceObject: {fileID: 0}
  m_PrefabInstance: {fileID: 0}
  m_PrefabAsset: {fileID: 0}
  m_GameObject: {fileID: 0}
  m_Enabled: 1
  m_EditorHideFlags: 0
  m_Script: {fileID: 11500000, guid: 712cce619a03a7844b8741268ff0f9b2, type: 3}
  m_Name: Wave
  m_EditorClassIdentifier: 
  name: Wave
  estatic: 1
  likewise: 0
  mensagge: ChangeLife
  argument: -20
  particle: 0
  staticParticle: 0
  particleSystem: {fileID: 0}
  timeAction: 3
  isShader: 0
  shader: {fileID: 0}
  animationTrigger: Wave
